[
  {
    "Category": "Proteins",
    "Items": "Chicken Breast",
    "Weight": 125,
    "Carbs": 0,
    "Fat": 1.5,
    "Protein": 29.3,
    "Calories": 132,
    "Unit": 0.5
  },
  {
    "Category": "Proteins",
    "Items": "Smoked Duck",
    "Weight": 100,
    "Carbs": 0,
    "Fat": 39,
    "Protein": 11,
    "Calories": 239,
    "Unit": 0.5
  },
  {
    "Category": "Proteins",
    "Items": "Prawns",
    "Weight": "5 pieces",
    "Carbs": 0.3,
    "Fat": 0.6,
    "Protein": 6.7,
    "Calories": 35
  },
  {
    "Category": "Proteins",
    "Items": "Saba",
    "Weight": 130,
    "Carbs": 0,
    "Fat": 4.6,
    "Protein": 18.6,
    "Calories": 116
  },
  {
    "Category": "Proteins",
    "Items": "Salmon",
    "Weight": 130,
    "Carbs": 0,
    "Fat": 1.1,
    "Protein": 24.1,
    "Calories": 115
  },
  {
    "Category": "Proteins",
    "Items": "Oyster Blade Steak",
    "Weight": 90,
    "Carbs": 0,
    "Fat": 5.4,
    "Protein": 18,
    "Calories": 130,
    "Unit": 0.5
  },
  {
    "Category": "Proteins",
    "Items": "Impossible Patty",
    "Weight": 150,
    "Carbs": 30.9,
    "Fat": 8.4,
    "Protein": 16.6,
    "Calories": 262
  },
  {
    "Category": "Carbs",
    "Items": "Furikake Japanese Brown Rice",
    "Weight": 140,
    "Carbs": 43.8,
    "Fat": 4.3,
    "Protein": 4.5,
    "Calories": 233
  },
  {
    "Category": "Carbs",
    "Items": "Furikake Japanese White Rice",
    "Weight": 140,
    "Carbs": 49.7,
    "Fat": 3.5,
    "Protein": 4.3,
    "Calories": 247
  },
  {
    "Category": "Carbs",
    "Items": "Konnyaku",
    "Weight": 110,
    "Carbs": 8.9,
    "Fat": 0,
    "Protein": 0,
    "Calories": 42
  },
  {
    "Category": "Carbs",
    "Items": "Cold Soba",
    "Weight": 110,
    "Carbs": 26.3,
    "Fat": 1.47,
    "Protein": 5.5,
    "Calories": 133.6
  },
  {
    "Category": "Carbs",
    "Items": "Herbed Quinoa",
    "Weight": 90,
    "Carbs": 19.17,
    "Fat": 10.73,
    "Protein": 3.96,
    "Calories": 185.4
  },
  {
    "Category": "Carbs",
    "Items": "Salt Baked Sweet Potatoes",
    "Weight": 100,
    "Carbs": 20.1,
    "Fat": 0.1,
    "Protein": 1.6,
    "Calories": 86
  },
  {
    "Category": "Carbs",
    "Items": "Sun-dried Tomato Pasta",
    "Weight": 100,
    "Carbs": 66.66,
    "Fat": 6.81,
    "Protein": 11.16,
    "Calories": 374.04
  },
  {
    "Category": "Carbs",
    "Items": "Roasted Baby Potatoes",
    "Weight": 110,
    "Carbs": 21.47,
    "Fat": 2.46,
    "Protein": 1.99,
    "Calories": 113.3
  },
  {
    "Category": "Sides",
    "Items": "Roasted Vegetables",
    "Weight": 110,
    "Carbs": 8.3,
    "Fat": 3.48,
    "Protein": 1.99,
    "Calories": 66.73
  },
  {
    "Category": "Sides",
    "Items": "Roasted Okra",
    "Weight": 110,
    "Carbs": 5.42,
    "Fat": 1.38,
    "Protein": 3,
    "Calories": 38.89
  },
  {
    "Category": "Sides",
    "Items": "Miso Cauliflower",
    "Weight": 100,
    "Carbs": 7.63,
    "Fat": 7.18,
    "Protein": 4.32,
    "Calories": 103.75
  },
  {
    "Category": "Sides",
    "Items": "Wafu Salad",
    "Weight": 55,
    "Carbs": 4.04,
    "Fat": 2.42,
    "Protein": 0.82,
    "Calories": 38.67
  },
  {
    "Category": "Sides",
    "Items": "Chuka Sesame Salad",
    "Weight": 55,
    "Carbs": 4.21,
    "Fat": 7.78,
    "Protein": 1.13,
    "Calories": 64.67
  },
  {
    "Category": "Sides",
    "Items": "Japanese Cucumber Salad",
    "Weight": 100,
    "Carbs": 4.46,
    "Fat": 2.56,
    "Protein": 1.4,
    "Calories": 41.94
  },
  {
    "Category": "Sides",
    "Items": "Steamed Broccoli",
    "Weight": 100,
    "Carbs": 7.34,
    "Fat": 0.33,
    "Protein": 2.49,
    "Calories": 36.08
  },
  {
    "Category": "Sides",
    "Items": "Avocado",
    "Weight": "half",
    "Carbs": 8.5,
    "Fat": 14.5,
    "Protein": 2,
    "Calories": 161
  },
  {
    "Category": "Sides",
    "Items": "Breaded Tofu",
    "Weight": "quarter",
    "Carbs": 7.24,
    "Fat": 2.35,
    "Protein": 5.08,
    "Calories": 70.37
  },
  {
    "Category": "Sides",
    "Items": "Mushroom Medley",
    "Weight": 90,
    "Carbs": 6.97,
    "Fat": 0.2,
    "Protein": 2.14,
    "Calories": 32.4
  },
  {
    "Category": "Sides",
    "Items": "Sesame Spinach Salad",
    "Weight": 90,
    "Carbs": 6.81,
    "Fat": 1.8,
    "Protein": 3.34,
    "Calories": 50.03
  },
  {
    "Category": "Sides",
    "Items": "Edamame",
    "Weight": 50,
    "Carbs": 4.12,
    "Fat": 2.35,
    "Protein": 5.29,
    "Calories": 52.94
  },
  {
    "Category": "Sides",
    "Items": "Curry Chickpeas",
    "Weight": 90,
    "Carbs": 44.96,
    "Fat": 4.49,
    "Protein": 13.9,
    "Calories": 267.24
  },
  {
    "Category": "Sides",
    "Items": "Onsen Egg",
    "Weight": "1 whole",
    "Carbs": 0.32,
    "Fat": 3.76,
    "Protein": 4.8,
    "Calories": 56.8
  },
  {
    "Category": "Sides",
    "Items": "Ramen Egg",
    "Weight": "1 whole",
    "Carbs": 0.5,
    "Fat": 4,
    "Protein": 5,
    "Calories": 63
  },
  {
    "Category": "Sides",
    "Items": "Daikon Pickles",
    "Weight": 30,
    "Carbs": 2.31,
    "Fat": 0,
    "Protein": 0,
    "Calories": 11.54
  },
  {
    "Category": "Sides",
    "Items": "Cucumber Pickles",
    "Weight": 30,
    "Carbs": 0.7,
    "Fat": 0.1,
    "Protein": 0.1,
    "Calories": 3
  },
  {
    "Category": "Sides",
    "Items": "Miso Soup",
    "Weight": 200,
    "Carbs": 2.25,
    "Fat": 0.43,
    "Protein": 1.45,
    "Calories": 17.89
  }
]
